{
    "os": "Linux-5.8.0-41-generic-x86_64-with-glibc2.31",
    "python": "3.11.5",
    "heartbeatAt": "2023-12-19T12:23:12.369221",
    "startedAt": "2023-12-19T12:23:11.884638",
    "docker": null,
    "cuda": null,
    "args": [
        "--wandb_project=beeldverwerking",
        "--batch_size=15",
        "--lr=0.0001"
    ],
    "state": "running",
    "program": "/home/student/Documents/beeldverwerking/train.py",
    "codePathLocal": "train.py",
    "codePath": "train.py",
    "git": {
        "remote": "https://gitlab.com/NanoForLife/beeldverwerking.git",
        "commit": "cd4dba476832a6774a7c18a8319e43970042518e"
    },
    "email": null,
    "root": "/home/student/Documents/beeldverwerking",
    "host": "A212-pc02",
    "username": "student",
    "executable": "/home/student/Documents/beeldverwerking/.venv/bin/python",
    "cpu_count": 8,
    "cpu_count_logical": 8,
    "cpu_freq": {
        "current": 4581.177125,
        "min": 800.0,
        "max": 4900.0
    },
    "cpu_freq_per_core": [
        {
            "current": 4532.383,
            "min": 800.0,
            "max": 4900.0
        },
        {
            "current": 4593.345,
            "min": 800.0,
            "max": 4900.0
        },
        {
            "current": 4582.791,
            "min": 800.0,
            "max": 4900.0
        },
        {
            "current": 4592.534,
            "min": 800.0,
            "max": 4900.0
        },
        {
            "current": 4592.462,
            "min": 800.0,
            "max": 4900.0
        },
        {
            "current": 4590.918,
            "min": 800.0,
            "max": 4900.0
        },
        {
            "current": 4585.484,
            "min": 800.0,
            "max": 4900.0
        },
        {
            "current": 4579.5,
            "min": 800.0,
            "max": 4900.0
        }
    ],
    "disk": {
        "/": {
            "total": 109.50305557250977,
            "used": 93.13304901123047
        }
    },
    "gpu": "NVIDIA GeForce RTX 2060",
    "gpu_count": 1,
    "gpu_devices": [
        {
            "name": "NVIDIA GeForce RTX 2060",
            "memory_total": 6442450944
        }
    ],
    "memory": {
        "total": 31.145278930664062
    }
}
