{
    "os": "Linux-5.8.0-41-generic-x86_64-with-glibc2.31",
    "python": "3.11.5",
    "heartbeatAt": "2023-12-19T11:03:27.385765",
    "startedAt": "2023-12-19T11:03:26.885032",
    "docker": null,
    "cuda": null,
    "args": [
        "--wandb_project=beeldverwerking"
    ],
    "state": "running",
    "program": "/home/student/Documents/beeldverwerking/train.py",
    "codePathLocal": "train.py",
    "codePath": "train.py",
    "git": {
        "remote": "https://gitlab.com/NanoForLife/beeldverwerking.git",
        "commit": "cd4dba476832a6774a7c18a8319e43970042518e"
    },
    "email": null,
    "root": "/home/student/Documents/beeldverwerking",
    "host": "A212-pc02",
    "username": "student",
    "executable": "/home/student/Documents/beeldverwerking/.venv/bin/python",
    "cpu_count": 8,
    "cpu_count_logical": 8,
    "cpu_freq": {
        "current": 4232.264625,
        "min": 800.0,
        "max": 4900.0
    },
    "cpu_freq_per_core": [
        {
            "current": 3937.385,
            "min": 800.0,
            "max": 4900.0
        },
        {
            "current": 3934.187,
            "min": 800.0,
            "max": 4900.0
        },
        {
            "current": 3956.926,
            "min": 800.0,
            "max": 4900.0
        },
        {
            "current": 3815.119,
            "min": 800.0,
            "max": 4900.0
        },
        {
            "current": 4708.565,
            "min": 800.0,
            "max": 4900.0
        },
        {
            "current": 4601.261,
            "min": 800.0,
            "max": 4900.0
        },
        {
            "current": 4347.084,
            "min": 800.0,
            "max": 4900.0
        },
        {
            "current": 4557.59,
            "min": 800.0,
            "max": 4900.0
        }
    ],
    "disk": {
        "/": {
            "total": 109.50305557250977,
            "used": 91.90387344360352
        }
    },
    "gpu": "NVIDIA GeForce RTX 2060",
    "gpu_count": 1,
    "gpu_devices": [
        {
            "name": "NVIDIA GeForce RTX 2060",
            "memory_total": 6442450944
        }
    ],
    "memory": {
        "total": 31.145278930664062
    }
}
